ISO-10303-21;
HEADER;
FILE_DESCRIPTION((''),'2;1');
FILE_NAME('C-61407-3','2016-03-29T',('workeradm'),('Tyco Electronics Ltd.'),
'CREO PARAMETRIC BY PTC INC, 2015200','CREO PARAMETRIC BY PTC INC, 2015200','');
FILE_SCHEMA(('AUTOMOTIVE_DESIGN { 1 0 10303 214 1 1 1 1 }'));
ENDSEC;
DATA;
#2=DIRECTION('',(0.E0,0.E0,1.E0));
#3=VECTOR('',#2,5.0292E-1);
#4=CARTESIAN_POINT('',(-3.7465E0,5.28066E0,-8.128E0));
#5=LINE('',#4,#3);
#6=DIRECTION('',(0.E0,-1.E0,0.E0));
#7=VECTOR('',#6,4.52628E0);
#8=CARTESIAN_POINT('',(-3.7465E0,5.28066E0,-7.62508E0));
#9=LINE('',#8,#7);
#10=CARTESIAN_POINT('',(-3.7465E0,7.5438E-1,-7.12216E0));
#11=DIRECTION('',(-1.E0,0.E0,0.E0));
#12=DIRECTION('',(0.E0,0.E0,-1.E0));
#13=AXIS2_PLACEMENT_3D('',#10,#11,#12);
#15=DIRECTION('',(0.E0,0.E0,1.E0));
#16=VECTOR('',#15,7.7216E-1);
#17=CARTESIAN_POINT('',(-3.7465E0,2.5146E-1,-7.12216E0));
#18=LINE('',#17,#16);
#19=DIRECTION('',(0.E0,1.E0,0.E0));
#20=VECTOR('',#19,5.0292E-1);
#21=CARTESIAN_POINT('',(-3.7465E0,-2.5146E-1,-6.35E0));
#22=LINE('',#21,#20);
#23=DIRECTION('',(0.E0,0.E0,-1.E0));
#24=VECTOR('',#23,7.7216E-1);
#25=CARTESIAN_POINT('',(-3.7465E0,-2.5146E-1,-6.35E0));
#26=LINE('',#25,#24);
#27=CARTESIAN_POINT('',(-3.7465E0,7.5438E-1,-7.12216E0));
#28=DIRECTION('',(1.E0,0.E0,0.E0));
#29=DIRECTION('',(0.E0,-1.E0,0.E0));
#30=AXIS2_PLACEMENT_3D('',#27,#28,#29);
#32=DIRECTION('',(0.E0,1.E0,0.E0));
#33=VECTOR('',#32,4.52628E0);
#34=CARTESIAN_POINT('',(-3.7465E0,7.5438E-1,-8.128E0));
#35=LINE('',#34,#33);
#36=CARTESIAN_POINT('',(0.E0,4.69646E0,-8.128E0));
#37=DIRECTION('',(0.E0,0.E0,1.E0));
#38=DIRECTION('',(-1.E0,0.E0,0.E0));
#39=AXIS2_PLACEMENT_3D('',#36,#37,#38);
#41=CARTESIAN_POINT('',(0.E0,4.69646E0,-8.128E0));
#42=DIRECTION('',(0.E0,0.E0,1.E0));
#43=DIRECTION('',(1.E0,0.E0,0.E0));
#44=AXIS2_PLACEMENT_3D('',#41,#42,#43);
#46=DIRECTION('',(0.E0,-1.E0,0.E0));
#47=VECTOR('',#46,2.5908E0);
#48=CARTESIAN_POINT('',(3.4925E0,7.87146E0,-8.128E0));
#49=LINE('',#48,#47);
#50=DIRECTION('',(0.E0,-1.E0,0.E0));
#51=VECTOR('',#50,2.5908E0);
#52=CARTESIAN_POINT('',(-3.4925E0,7.87146E0,-8.128E0));
#53=LINE('',#52,#51);
#54=DIRECTION('',(1.E0,0.E0,0.E0));
#55=VECTOR('',#54,2.54E-1);
#56=CARTESIAN_POINT('',(-3.7465E0,5.28066E0,-8.128E0));
#57=LINE('',#56,#55);
#58=DIRECTION('',(1.E0,0.E0,0.E0));
#59=VECTOR('',#58,7.493E0);
#60=CARTESIAN_POINT('',(-3.7465E0,7.5438E-1,-8.128E0));
#61=LINE('',#60,#59);
#62=DIRECTION('',(-1.E0,0.E0,0.E0));
#63=VECTOR('',#62,2.54E-1);
#64=CARTESIAN_POINT('',(3.7465E0,5.28066E0,-8.128E0));
#65=LINE('',#64,#63);
#66=DIRECTION('',(0.E0,0.E0,1.E0));
#67=VECTOR('',#66,5.0292E-1);
#68=CARTESIAN_POINT('',(-1.8415E0,4.69646E0,-8.128E0));
#69=LINE('',#68,#67);
#70=DIRECTION('',(0.E0,0.E0,1.E0));
#71=VECTOR('',#70,5.0292E-1);
#72=CARTESIAN_POINT('',(1.8415E0,4.69646E0,-8.128E0));
#73=LINE('',#72,#71);
#74=CARTESIAN_POINT('',(0.E0,4.69646E0,-7.62508E0));
#75=DIRECTION('',(0.E0,0.E0,1.E0));
#76=DIRECTION('',(-1.E0,0.E0,0.E0));
#77=AXIS2_PLACEMENT_3D('',#74,#75,#76);
#79=CARTESIAN_POINT('',(0.E0,4.69646E0,-7.62508E0));
#80=DIRECTION('',(0.E0,0.E0,1.E0));
#81=DIRECTION('',(1.E0,0.E0,0.E0));
#82=AXIS2_PLACEMENT_3D('',#79,#80,#81);
#84=DIRECTION('',(0.E0,-1.E0,0.E0));
#85=VECTOR('',#84,2.5908E0);
#86=CARTESIAN_POINT('',(3.4925E0,7.87146E0,-7.62508E0));
#87=LINE('',#86,#85);
#88=DIRECTION('',(-1.E0,0.E0,0.E0));
#89=VECTOR('',#88,2.54E-1);
#90=CARTESIAN_POINT('',(3.7465E0,5.28066E0,-7.62508E0));
#91=LINE('',#90,#89);
#92=DIRECTION('',(1.E0,0.E0,0.E0));
#93=VECTOR('',#92,2.54E-1);
#94=CARTESIAN_POINT('',(-3.7465E0,5.28066E0,-7.62508E0));
#95=LINE('',#94,#93);
#96=DIRECTION('',(0.E0,-1.E0,0.E0));
#97=VECTOR('',#96,2.5908E0);
#98=CARTESIAN_POINT('',(-3.4925E0,7.87146E0,-7.62508E0));
#99=LINE('',#98,#97);
#100=DIRECTION('',(1.E0,0.E0,0.E0));
#101=VECTOR('',#100,6.985E0);
#102=CARTESIAN_POINT('',(-3.4925E0,7.87146E0,-7.62508E0));
#103=LINE('',#102,#101);
#104=DIRECTION('',(0.E0,0.E0,1.E0));
#105=VECTOR('',#104,5.0292E-1);
#106=CARTESIAN_POINT('',(3.4925E0,5.28066E0,-8.128E0));
#107=LINE('',#106,#105);
#108=DIRECTION('',(0.E0,0.E0,1.E0));
#109=VECTOR('',#108,5.0292E-1);
#110=CARTESIAN_POINT('',(3.7465E0,5.28066E0,-8.128E0));
#111=LINE('',#110,#109);
#112=DIRECTION('',(0.E0,1.E0,0.E0));
#113=VECTOR('',#112,4.52628E0);
#114=CARTESIAN_POINT('',(3.7465E0,7.5438E-1,-8.128E0));
#115=LINE('',#114,#113);
#116=CARTESIAN_POINT('',(3.7465E0,7.5438E-1,-7.12216E0));
#117=DIRECTION('',(1.E0,0.E0,0.E0));
#118=DIRECTION('',(0.E0,-1.E0,0.E0));
#119=AXIS2_PLACEMENT_3D('',#116,#117,#118);
#121=DIRECTION('',(0.E0,0.E0,-1.E0));
#122=VECTOR('',#121,7.7216E-1);
#123=CARTESIAN_POINT('',(3.7465E0,-2.5146E-1,-6.35E0));
#124=LINE('',#123,#122);
#125=DIRECTION('',(0.E0,1.E0,0.E0));
#126=VECTOR('',#125,5.0292E-1);
#127=CARTESIAN_POINT('',(3.7465E0,-2.5146E-1,-6.35E0));
#128=LINE('',#127,#126);
#129=DIRECTION('',(0.E0,0.E0,1.E0));
#130=VECTOR('',#129,7.7216E-1);
#131=CARTESIAN_POINT('',(3.7465E0,2.5146E-1,-7.12216E0));
#132=LINE('',#131,#130);
#133=CARTESIAN_POINT('',(3.7465E0,7.5438E-1,-7.12216E0));
#134=DIRECTION('',(-1.E0,0.E0,0.E0));
#135=DIRECTION('',(0.E0,0.E0,-1.E0));
#136=AXIS2_PLACEMENT_3D('',#133,#134,#135);
#138=DIRECTION('',(0.E0,-1.E0,0.E0));
#139=VECTOR('',#138,4.52628E0);
#140=CARTESIAN_POINT('',(3.7465E0,5.28066E0,-7.62508E0));
#141=LINE('',#140,#139);
#142=DIRECTION('',(1.E0,0.E0,0.E0));
#143=VECTOR('',#142,7.493E0);
#144=CARTESIAN_POINT('',(-3.7465E0,-2.5146E-1,-7.12216E0));
#145=LINE('',#144,#143);
#146=CARTESIAN_POINT('',(0.E0,-2.5146E-1,-3.175E0));
#147=DIRECTION('',(0.E0,1.E0,0.E0));
#148=DIRECTION('',(-1.E0,0.E0,0.E0));
#149=AXIS2_PLACEMENT_3D('',#146,#147,#148);
#151=CARTESIAN_POINT('',(0.E0,-2.5146E-1,-3.175E0));
#152=DIRECTION('',(0.E0,1.E0,0.E0));
#153=DIRECTION('',(1.E0,0.E0,0.E0));
#154=AXIS2_PLACEMENT_3D('',#151,#152,#153);
#156=DIRECTION('',(-1.E0,0.E0,0.E0));
#157=VECTOR('',#156,1.3589E0);
#158=CARTESIAN_POINT('',(3.7465E0,-2.5146E-1,-6.35E0));
#159=LINE('',#158,#157);
#160=DIRECTION('',(1.E0,0.E0,0.E0));
#161=VECTOR('',#160,1.3589E0);
#162=CARTESIAN_POINT('',(-3.7465E0,-2.5146E-1,-6.35E0));
#163=LINE('',#162,#161);
#164=DIRECTION('',(0.E0,0.E0,-1.E0));
#165=VECTOR('',#164,5.461E0);
#166=CARTESIAN_POINT('',(-2.3876E0,-2.5146E-1,-8.89E-1));
#167=LINE('',#166,#165);
#168=DIRECTION('',(1.E0,0.E0,0.E0));
#169=VECTOR('',#168,4.7752E0);
#170=CARTESIAN_POINT('',(-2.3876E0,-2.5146E-1,-8.89E-1));
#171=LINE('',#170,#169);
#172=DIRECTION('',(0.E0,0.E0,-1.E0));
#173=VECTOR('',#172,5.461E0);
#174=CARTESIAN_POINT('',(2.3876E0,-2.5146E-1,-8.89E-1));
#175=LINE('',#174,#173);
#176=DIRECTION('',(0.E0,1.E0,0.E0));
#177=VECTOR('',#176,5.0292E-1);
#178=CARTESIAN_POINT('',(-6.6675E-1,-2.5146E-1,-3.175E0));
#179=LINE('',#178,#177);
#180=DIRECTION('',(0.E0,1.E0,0.E0));
#181=VECTOR('',#180,5.0292E-1);
#182=CARTESIAN_POINT('',(6.6675E-1,-2.5146E-1,-3.175E0));
#183=LINE('',#182,#181);
#184=CARTESIAN_POINT('',(0.E0,2.5146E-1,-3.175E0));
#185=DIRECTION('',(0.E0,1.E0,0.E0));
#186=DIRECTION('',(-1.E0,0.E0,0.E0));
#187=AXIS2_PLACEMENT_3D('',#184,#185,#186);
#189=CARTESIAN_POINT('',(0.E0,2.5146E-1,-3.175E0));
#190=DIRECTION('',(0.E0,1.E0,0.E0));
#191=DIRECTION('',(1.E0,0.E0,0.E0));
#192=AXIS2_PLACEMENT_3D('',#189,#190,#191);
#194=DIRECTION('',(-1.E0,0.E0,0.E0));
#195=VECTOR('',#194,1.3589E0);
#196=CARTESIAN_POINT('',(3.7465E0,2.5146E-1,-6.35E0));
#197=LINE('',#196,#195);
#198=DIRECTION('',(0.E0,0.E0,-1.E0));
#199=VECTOR('',#198,5.461E0);
#200=CARTESIAN_POINT('',(2.3876E0,2.5146E-1,-8.89E-1));
#201=LINE('',#200,#199);
#202=DIRECTION('',(0.E0,0.E0,-1.E0));
#203=VECTOR('',#202,5.461E0);
#204=CARTESIAN_POINT('',(-2.3876E0,2.5146E-1,-8.89E-1));
#205=LINE('',#204,#203);
#206=DIRECTION('',(1.E0,0.E0,0.E0));
#207=VECTOR('',#206,1.3589E0);
#208=CARTESIAN_POINT('',(-3.7465E0,2.5146E-1,-6.35E0));
#209=LINE('',#208,#207);
#210=DIRECTION('',(1.E0,0.E0,0.E0));
#211=VECTOR('',#210,7.493E0);
#212=CARTESIAN_POINT('',(-3.7465E0,2.5146E-1,-7.12216E0));
#213=LINE('',#212,#211);
#214=DIRECTION('',(0.E0,1.E0,0.E0));
#215=VECTOR('',#214,5.0292E-1);
#216=CARTESIAN_POINT('',(2.3876E0,-2.5146E-1,-6.35E0));
#217=LINE('',#216,#215);
#218=DIRECTION('',(0.E0,1.736481776669E-1,9.848077530122E-1));
#219=VECTOR('',#218,7.737550782569E-2);
#220=CARTESIAN_POINT('',(2.3876E0,-2.5146E-1,-8.89E-1));
#221=LINE('',#220,#219);
#222=DIRECTION('',(0.E0,1.736481776669E-1,9.848077530122E-1));
#223=VECTOR('',#222,7.737550782569E-2);
#224=CARTESIAN_POINT('',(-2.3876E0,-2.5146E-1,-8.89E-1));
#225=LINE('',#224,#223);
#226=DIRECTION('',(-7.016738431599E-1,-1.237240302065E-1,-7.016738431599E-1));
#227=VECTOR('',#226,1.158372950515E0);
#228=CARTESIAN_POINT('',(-1.5748E0,-9.470531415017E-2,0.E0));
#229=LINE('',#228,#227);
#230=DIRECTION('',(1.E0,0.E0,0.E0));
#231=VECTOR('',#230,3.1496E0);
#232=CARTESIAN_POINT('',(-1.5748E0,-9.470531415017E-2,0.E0));
#233=LINE('',#232,#231);
#234=DIRECTION('',(-7.016738431599E-1,1.237240302065E-1,7.016738431599E-1));
#235=VECTOR('',#234,1.158372950515E0);
#236=CARTESIAN_POINT('',(2.3876E0,-2.380238840700E-1,-8.128E-1));
#237=LINE('',#236,#235);
#238=DIRECTION('',(0.E0,1.E0,0.E0));
#239=VECTOR('',#238,4.760477681400E-1);
#240=CARTESIAN_POINT('',(-2.3876E0,-2.380238840700E-1,-8.128E-1));
#241=LINE('',#240,#239);
#242=DIRECTION('',(0.E0,1.E0,0.E0));
#243=VECTOR('',#242,5.0292E-1);
#244=CARTESIAN_POINT('',(-2.3876E0,-2.5146E-1,-6.35E0));
#245=LINE('',#244,#243);
#246=DIRECTION('',(0.E0,-1.736481776669E-1,9.848077530122E-1));
#247=VECTOR('',#246,7.737550782569E-2);
#248=CARTESIAN_POINT('',(2.3876E0,2.5146E-1,-8.89E-1));
#249=LINE('',#248,#247);
#250=DIRECTION('',(-7.016738431599E-1,-1.237240302065E-1,7.016738431599E-1));
#251=VECTOR('',#250,1.158372950515E0);
#252=CARTESIAN_POINT('',(2.3876E0,2.380238840700E-1,-8.128E-1));
#253=LINE('',#252,#251);
#254=DIRECTION('',(-7.016738431599E-1,1.237240302065E-1,-7.016738431599E-1));
#255=VECTOR('',#254,1.158372950515E0);
#256=CARTESIAN_POINT('',(-1.5748E0,9.470531415018E-2,0.E0));
#257=LINE('',#256,#255);
#258=DIRECTION('',(0.E0,-1.736481776669E-1,9.848077530122E-1));
#259=VECTOR('',#258,7.737550782569E-2);
#260=CARTESIAN_POINT('',(-2.3876E0,2.5146E-1,-8.89E-1));
#261=LINE('',#260,#259);
#262=DIRECTION('',(1.E0,0.E0,0.E0));
#263=VECTOR('',#262,4.7752E0);
#264=CARTESIAN_POINT('',(-2.3876E0,2.5146E-1,-8.89E-1));
#265=LINE('',#264,#263);
#266=DIRECTION('',(0.E0,1.E0,0.E0));
#267=VECTOR('',#266,4.760477681400E-1);
#268=CARTESIAN_POINT('',(2.3876E0,-2.380238840700E-1,-8.128E-1));
#269=LINE('',#268,#267);
#270=DIRECTION('',(0.E0,-1.E0,0.E0));
#271=VECTOR('',#270,1.894106283003E-1);
#272=CARTESIAN_POINT('',(1.5748E0,9.470531415018E-2,0.E0));
#273=LINE('',#272,#271);
#274=DIRECTION('',(0.E0,-1.E0,0.E0));
#275=VECTOR('',#274,1.894106283003E-1);
#276=CARTESIAN_POINT('',(-1.5748E0,9.470531415018E-2,0.E0));
#277=LINE('',#276,#275);
#278=DIRECTION('',(1.E0,0.E0,0.E0));
#279=VECTOR('',#278,3.1496E0);
#280=CARTESIAN_POINT('',(-1.5748E0,9.470531415018E-2,0.E0));
#281=LINE('',#280,#279);
#282=DIRECTION('',(1.E0,0.E0,0.E0));
#283=VECTOR('',#282,7.493E0);
#284=CARTESIAN_POINT('',(-3.7465E0,7.5438E-1,-7.62508E0));
#285=LINE('',#284,#283);
#286=DIRECTION('',(0.E0,0.E0,1.E0));
#287=VECTOR('',#286,5.0292E-1);
#288=CARTESIAN_POINT('',(3.4925E0,7.87146E0,-8.128E0));
#289=LINE('',#288,#287);
#290=DIRECTION('',(0.E0,0.E0,1.E0));
#291=VECTOR('',#290,5.0292E-1);
#292=CARTESIAN_POINT('',(-3.4925E0,7.87146E0,-8.128E0));
#293=LINE('',#292,#291);
#294=DIRECTION('',(1.E0,0.E0,0.E0));
#295=VECTOR('',#294,6.985E0);
#296=CARTESIAN_POINT('',(-3.4925E0,7.87146E0,-8.128E0));
#297=LINE('',#296,#295);
#298=DIRECTION('',(0.E0,0.E0,1.E0));
#299=VECTOR('',#298,5.0292E-1);
#300=CARTESIAN_POINT('',(-3.4925E0,5.28066E0,-8.128E0));
#301=LINE('',#300,#299);
#302=CARTESIAN_POINT('',(-3.7465E0,-2.5146E-1,-7.12216E0));
#303=CARTESIAN_POINT('',(-3.7465E0,7.5438E-1,-8.128E0));
#304=VERTEX_POINT('',#302);
#305=VERTEX_POINT('',#303);
#306=CARTESIAN_POINT('',(-3.7465E0,7.5438E-1,-7.62508E0));
#307=CARTESIAN_POINT('',(-3.7465E0,2.5146E-1,-7.12216E0));
#308=VERTEX_POINT('',#306);
#309=VERTEX_POINT('',#307);
#310=CARTESIAN_POINT('',(3.7465E0,-2.5146E-1,-7.12216E0));
#311=CARTESIAN_POINT('',(3.7465E0,7.5438E-1,-8.128E0));
#312=VERTEX_POINT('',#310);
#313=VERTEX_POINT('',#311);
#314=CARTESIAN_POINT('',(3.7465E0,7.5438E-1,-7.62508E0));
#315=CARTESIAN_POINT('',(3.7465E0,2.5146E-1,-7.12216E0));
#316=VERTEX_POINT('',#314);
#317=VERTEX_POINT('',#315);
#318=CARTESIAN_POINT('',(-3.7465E0,-2.5146E-1,-6.35E0));
#319=CARTESIAN_POINT('',(-3.7465E0,2.5146E-1,-6.35E0));
#320=VERTEX_POINT('',#318);
#321=VERTEX_POINT('',#319);
#322=CARTESIAN_POINT('',(3.7465E0,-2.5146E-1,-6.35E0));
#323=CARTESIAN_POINT('',(3.7465E0,2.5146E-1,-6.35E0));
#324=VERTEX_POINT('',#322);
#325=VERTEX_POINT('',#323);
#326=CARTESIAN_POINT('',(1.5748E0,9.470531415018E-2,0.E0));
#327=CARTESIAN_POINT('',(1.5748E0,-9.470531415017E-2,0.E0));
#328=VERTEX_POINT('',#326);
#329=VERTEX_POINT('',#327);
#330=CARTESIAN_POINT('',(-1.5748E0,9.470531415018E-2,0.E0));
#331=CARTESIAN_POINT('',(-1.5748E0,-9.470531415017E-2,0.E0));
#332=VERTEX_POINT('',#330);
#333=VERTEX_POINT('',#331);
#334=CARTESIAN_POINT('',(2.3876E0,-2.5146E-1,-8.89E-1));
#335=CARTESIAN_POINT('',(2.3876E0,-2.380238840700E-1,-8.128E-1));
#336=VERTEX_POINT('',#334);
#337=VERTEX_POINT('',#335);
#338=CARTESIAN_POINT('',(-2.3876E0,-2.380238840700E-1,-8.128E-1));
#339=VERTEX_POINT('',#338);
#340=CARTESIAN_POINT('',(-2.3876E0,-2.5146E-1,-8.89E-1));
#341=VERTEX_POINT('',#340);
#342=CARTESIAN_POINT('',(-6.6675E-1,-2.5146E-1,-3.175E0));
#343=CARTESIAN_POINT('',(6.6675E-1,-2.5146E-1,-3.175E0));
#344=VERTEX_POINT('',#342);
#345=VERTEX_POINT('',#343);
#346=CARTESIAN_POINT('',(2.3876E0,-2.5146E-1,-6.35E0));
#347=VERTEX_POINT('',#346);
#348=CARTESIAN_POINT('',(-2.3876E0,-2.5146E-1,-6.35E0));
#349=VERTEX_POINT('',#348);
#350=CARTESIAN_POINT('',(-6.6675E-1,2.5146E-1,-3.175E0));
#351=CARTESIAN_POINT('',(6.6675E-1,2.5146E-1,-3.175E0));
#352=VERTEX_POINT('',#350);
#353=VERTEX_POINT('',#351);
#354=CARTESIAN_POINT('',(2.3876E0,2.5146E-1,-6.35E0));
#355=VERTEX_POINT('',#354);
#356=CARTESIAN_POINT('',(2.3876E0,2.5146E-1,-8.89E-1));
#357=VERTEX_POINT('',#356);
#358=CARTESIAN_POINT('',(-2.3876E0,2.5146E-1,-8.89E-1));
#359=CARTESIAN_POINT('',(-2.3876E0,2.5146E-1,-6.35E0));
#360=VERTEX_POINT('',#358);
#361=VERTEX_POINT('',#359);
#362=CARTESIAN_POINT('',(2.3876E0,2.380238840700E-1,-8.128E-1));
#363=VERTEX_POINT('',#362);
#364=CARTESIAN_POINT('',(-2.3876E0,2.380238840700E-1,-8.128E-1));
#365=VERTEX_POINT('',#364);
#366=CARTESIAN_POINT('',(-3.7465E0,5.28066E0,-8.128E0));
#367=CARTESIAN_POINT('',(-3.7465E0,5.28066E0,-7.62508E0));
#368=VERTEX_POINT('',#366);
#369=VERTEX_POINT('',#367);
#370=CARTESIAN_POINT('',(3.7465E0,5.28066E0,-8.128E0));
#371=CARTESIAN_POINT('',(3.7465E0,5.28066E0,-7.62508E0));
#372=VERTEX_POINT('',#370);
#373=VERTEX_POINT('',#371);
#374=CARTESIAN_POINT('',(-1.8415E0,4.69646E0,-8.128E0));
#375=CARTESIAN_POINT('',(1.8415E0,4.69646E0,-8.128E0));
#376=VERTEX_POINT('',#374);
#377=VERTEX_POINT('',#375);
#378=CARTESIAN_POINT('',(3.4925E0,7.87146E0,-8.128E0));
#379=CARTESIAN_POINT('',(3.4925E0,5.28066E0,-8.128E0));
#380=VERTEX_POINT('',#378);
#381=VERTEX_POINT('',#379);
#382=CARTESIAN_POINT('',(-3.4925E0,5.28066E0,-8.128E0));
#383=VERTEX_POINT('',#382);
#384=CARTESIAN_POINT('',(-3.4925E0,7.87146E0,-8.128E0));
#385=VERTEX_POINT('',#384);
#386=CARTESIAN_POINT('',(3.4925E0,7.87146E0,-7.62508E0));
#387=VERTEX_POINT('',#386);
#388=CARTESIAN_POINT('',(-3.4925E0,7.87146E0,-7.62508E0));
#389=VERTEX_POINT('',#388);
#390=CARTESIAN_POINT('',(-1.8415E0,4.69646E0,-7.62508E0));
#391=CARTESIAN_POINT('',(1.8415E0,4.69646E0,-7.62508E0));
#392=VERTEX_POINT('',#390);
#393=VERTEX_POINT('',#391);
#394=CARTESIAN_POINT('',(3.4925E0,5.28066E0,-7.62508E0));
#395=VERTEX_POINT('',#394);
#396=CARTESIAN_POINT('',(-3.4925E0,5.28066E0,-7.62508E0));
#397=VERTEX_POINT('',#396);
#398=CARTESIAN_POINT('',(-3.7465E0,0.E0,0.E0));
#399=DIRECTION('',(1.E0,0.E0,0.E0));
#400=DIRECTION('',(0.E0,0.E0,-1.E0));
#401=AXIS2_PLACEMENT_3D('',#398,#399,#400);
#402=PLANE('',#401);
#404=ORIENTED_EDGE('',*,*,#403,.T.);
#406=ORIENTED_EDGE('',*,*,#405,.T.);
#408=ORIENTED_EDGE('',*,*,#407,.T.);
#410=ORIENTED_EDGE('',*,*,#409,.T.);
#412=ORIENTED_EDGE('',*,*,#411,.F.);
#414=ORIENTED_EDGE('',*,*,#413,.T.);
#416=ORIENTED_EDGE('',*,*,#415,.T.);
#418=ORIENTED_EDGE('',*,*,#417,.T.);
#419=EDGE_LOOP('',(#404,#406,#408,#410,#412,#414,#416,#418));
#420=FACE_OUTER_BOUND('',#419,.F.);
#422=CARTESIAN_POINT('',(-3.7465E0,5.28066E0,-8.89508E0));
#423=DIRECTION('',(0.E0,-1.E0,0.E0));
#424=DIRECTION('',(1.E0,0.E0,0.E0));
#425=AXIS2_PLACEMENT_3D('',#422,#423,#424);
#426=PLANE('',#425);
#427=ORIENTED_EDGE('',*,*,#403,.F.);
#429=ORIENTED_EDGE('',*,*,#428,.T.);
#431=ORIENTED_EDGE('',*,*,#430,.T.);
#433=ORIENTED_EDGE('',*,*,#432,.F.);
#434=EDGE_LOOP('',(#427,#429,#431,#433));
#435=FACE_OUTER_BOUND('',#434,.F.);
#437=CARTESIAN_POINT('',(-3.7465E0,7.5438E-1,-8.128E0));
#438=DIRECTION('',(0.E0,0.E0,-1.E0));
#439=DIRECTION('',(0.E0,1.E0,0.E0));
#440=AXIS2_PLACEMENT_3D('',#437,#438,#439);
#441=PLANE('',#440);
#443=ORIENTED_EDGE('',*,*,#442,.F.);
#445=ORIENTED_EDGE('',*,*,#444,.F.);
#447=ORIENTED_EDGE('',*,*,#446,.T.);
#448=ORIENTED_EDGE('',*,*,#428,.F.);
#449=ORIENTED_EDGE('',*,*,#417,.F.);
#451=ORIENTED_EDGE('',*,*,#450,.T.);
#453=ORIENTED_EDGE('',*,*,#452,.T.);
#455=ORIENTED_EDGE('',*,*,#454,.T.);
#456=EDGE_LOOP('',(#443,#445,#447,#448,#449,#451,#453,#455));
#457=FACE_OUTER_BOUND('',#456,.F.);
#459=ORIENTED_EDGE('',*,*,#458,.F.);
#461=ORIENTED_EDGE('',*,*,#460,.F.);
#462=EDGE_LOOP('',(#459,#461));
#463=FACE_BOUND('',#462,.F.);
#465=CARTESIAN_POINT('',(0.E0,4.69646E0,-8.89508E0));
#466=DIRECTION('',(0.E0,0.E0,1.E0));
#467=DIRECTION('',(-1.E0,0.E0,0.E0));
#468=AXIS2_PLACEMENT_3D('',#465,#466,#467);
#469=CYLINDRICAL_SURFACE('',#468,1.8415E0);
#470=ORIENTED_EDGE('',*,*,#458,.T.);
#472=ORIENTED_EDGE('',*,*,#471,.T.);
#474=ORIENTED_EDGE('',*,*,#473,.F.);
#476=ORIENTED_EDGE('',*,*,#475,.F.);
#477=EDGE_LOOP('',(#470,#472,#474,#476));
#478=FACE_OUTER_BOUND('',#477,.F.);
#480=CARTESIAN_POINT('',(0.E0,4.69646E0,-8.89508E0));
#481=DIRECTION('',(0.E0,0.E0,1.E0));
#482=DIRECTION('',(-1.E0,0.E0,0.E0));
#483=AXIS2_PLACEMENT_3D('',#480,#481,#482);
#484=CYLINDRICAL_SURFACE('',#483,1.8415E0);
#485=ORIENTED_EDGE('',*,*,#460,.T.);
#486=ORIENTED_EDGE('',*,*,#475,.T.);
#488=ORIENTED_EDGE('',*,*,#487,.F.);
#489=ORIENTED_EDGE('',*,*,#471,.F.);
#490=EDGE_LOOP('',(#485,#486,#488,#489));
#491=FACE_OUTER_BOUND('',#490,.F.);
#493=CARTESIAN_POINT('',(-3.7465E0,7.87146E0,-7.62508E0));
#494=DIRECTION('',(0.E0,0.E0,1.E0));
#495=DIRECTION('',(0.E0,-1.E0,0.E0));
#496=AXIS2_PLACEMENT_3D('',#493,#494,#495);
#497=PLANE('',#496);
#499=ORIENTED_EDGE('',*,*,#498,.T.);
#501=ORIENTED_EDGE('',*,*,#500,.F.);
#503=ORIENTED_EDGE('',*,*,#502,.T.);
#505=ORIENTED_EDGE('',*,*,#504,.F.);
#506=ORIENTED_EDGE('',*,*,#405,.F.);
#507=ORIENTED_EDGE('',*,*,#432,.T.);
#509=ORIENTED_EDGE('',*,*,#508,.F.);
#511=ORIENTED_EDGE('',*,*,#510,.T.);
#512=EDGE_LOOP('',(#499,#501,#503,#505,#506,#507,#509,#511));
#513=FACE_OUTER_BOUND('',#512,.F.);
#514=ORIENTED_EDGE('',*,*,#473,.T.);
#515=ORIENTED_EDGE('',*,*,#487,.T.);
#516=EDGE_LOOP('',(#514,#515));
#517=FACE_BOUND('',#516,.F.);
#519=CARTESIAN_POINT('',(3.4925E0,7.87146E0,-8.89508E0));
#520=DIRECTION('',(-1.E0,0.E0,0.E0));
#521=DIRECTION('',(0.E0,-1.E0,0.E0));
#522=AXIS2_PLACEMENT_3D('',#519,#520,#521);
#523=PLANE('',#522);
#524=ORIENTED_EDGE('',*,*,#442,.T.);
#526=ORIENTED_EDGE('',*,*,#525,.T.);
#527=ORIENTED_EDGE('',*,*,#498,.F.);
#529=ORIENTED_EDGE('',*,*,#528,.F.);
#530=EDGE_LOOP('',(#524,#526,#527,#529));
#531=FACE_OUTER_BOUND('',#530,.F.);
#533=CARTESIAN_POINT('',(3.4925E0,5.28066E0,-8.89508E0));
#534=DIRECTION('',(0.E0,-1.E0,0.E0));
#535=DIRECTION('',(1.E0,0.E0,0.E0));
#536=AXIS2_PLACEMENT_3D('',#533,#534,#535);
#537=PLANE('',#536);
#539=ORIENTED_EDGE('',*,*,#538,.T.);
#540=ORIENTED_EDGE('',*,*,#500,.T.);
#541=ORIENTED_EDGE('',*,*,#525,.F.);
#542=ORIENTED_EDGE('',*,*,#454,.F.);
#543=EDGE_LOOP('',(#539,#540,#541,#542));
#544=FACE_OUTER_BOUND('',#543,.F.);
#546=CARTESIAN_POINT('',(3.7465E0,0.E0,0.E0));
#547=DIRECTION('',(1.E0,0.E0,0.E0));
#548=DIRECTION('',(0.E0,0.E0,-1.E0));
#549=AXIS2_PLACEMENT_3D('',#546,#547,#548);
#550=PLANE('',#549);
#551=ORIENTED_EDGE('',*,*,#538,.F.);
#552=ORIENTED_EDGE('',*,*,#452,.F.);
#554=ORIENTED_EDGE('',*,*,#553,.F.);
#556=ORIENTED_EDGE('',*,*,#555,.F.);
#558=ORIENTED_EDGE('',*,*,#557,.T.);
#560=ORIENTED_EDGE('',*,*,#559,.F.);
#562=ORIENTED_EDGE('',*,*,#561,.F.);
#563=ORIENTED_EDGE('',*,*,#502,.F.);
#564=EDGE_LOOP('',(#551,#552,#554,#556,#558,#560,#562,#563));
#565=FACE_OUTER_BOUND('',#564,.F.);
#567=CARTESIAN_POINT('',(-3.7465E0,7.5438E-1,-7.12216E0));
#568=DIRECTION('',(1.E0,0.E0,0.E0));
#569=DIRECTION('',(0.E0,0.E0,-1.E0));
#570=AXIS2_PLACEMENT_3D('',#567,#568,#569);
#571=CYLINDRICAL_SURFACE('',#570,1.00584E0);
#572=ORIENTED_EDGE('',*,*,#415,.F.);
#574=ORIENTED_EDGE('',*,*,#573,.T.);
#575=ORIENTED_EDGE('',*,*,#553,.T.);
#576=ORIENTED_EDGE('',*,*,#450,.F.);
#577=EDGE_LOOP('',(#572,#574,#575,#576));
#578=FACE_OUTER_BOUND('',#577,.F.);
#580=CARTESIAN_POINT('',(-3.7465E0,-2.5146E-1,-8.89E-1));
#581=DIRECTION('',(0.E0,-1.E0,0.E0));
#582=DIRECTION('',(0.E0,0.E0,-1.E0));
#583=AXIS2_PLACEMENT_3D('',#580,#581,#582);
#584=PLANE('',#583);
#586=ORIENTED_EDGE('',*,*,#585,.F.);
#587=ORIENTED_EDGE('',*,*,#555,.T.);
#588=ORIENTED_EDGE('',*,*,#573,.F.);
#589=ORIENTED_EDGE('',*,*,#413,.F.);
#591=ORIENTED_EDGE('',*,*,#590,.T.);
#593=ORIENTED_EDGE('',*,*,#592,.F.);
#595=ORIENTED_EDGE('',*,*,#594,.T.);
#597=ORIENTED_EDGE('',*,*,#596,.T.);
#598=EDGE_LOOP('',(#586,#587,#588,#589,#591,#593,#595,#597));
#599=FACE_OUTER_BOUND('',#598,.F.);
#601=ORIENTED_EDGE('',*,*,#600,.F.);
#603=ORIENTED_EDGE('',*,*,#602,.F.);
#604=EDGE_LOOP('',(#601,#603));
#605=FACE_BOUND('',#604,.F.);
#607=CARTESIAN_POINT('',(0.E0,-1.778E0,-3.175E0));
#608=DIRECTION('',(0.E0,1.E0,0.E0));
#609=DIRECTION('',(-1.E0,0.E0,0.E0));
#610=AXIS2_PLACEMENT_3D('',#607,#608,#609);
#611=CYLINDRICAL_SURFACE('',#610,6.6675E-1);
#612=ORIENTED_EDGE('',*,*,#600,.T.);
#614=ORIENTED_EDGE('',*,*,#613,.T.);
#616=ORIENTED_EDGE('',*,*,#615,.F.);
#618=ORIENTED_EDGE('',*,*,#617,.F.);
#619=EDGE_LOOP('',(#612,#614,#616,#618));
#620=FACE_OUTER_BOUND('',#619,.F.);
#622=CARTESIAN_POINT('',(0.E0,-1.778E0,-3.175E0));
#623=DIRECTION('',(0.E0,1.E0,0.E0));
#624=DIRECTION('',(-1.E0,0.E0,0.E0));
#625=AXIS2_PLACEMENT_3D('',#622,#623,#624);
#626=CYLINDRICAL_SURFACE('',#625,6.6675E-1);
#627=ORIENTED_EDGE('',*,*,#602,.T.);
#628=ORIENTED_EDGE('',*,*,#617,.T.);
#630=ORIENTED_EDGE('',*,*,#629,.F.);
#631=ORIENTED_EDGE('',*,*,#613,.F.);
#632=EDGE_LOOP('',(#627,#628,#630,#631));
#633=FACE_OUTER_BOUND('',#632,.F.);
#635=CARTESIAN_POINT('',(-3.7465E0,2.5146E-1,-7.12216E0));
#636=DIRECTION('',(0.E0,1.E0,0.E0));
#637=DIRECTION('',(0.E0,0.E0,1.E0));
#638=AXIS2_PLACEMENT_3D('',#635,#636,#637);
#639=PLANE('',#638);
#641=ORIENTED_EDGE('',*,*,#640,.T.);
#643=ORIENTED_EDGE('',*,*,#642,.F.);
#645=ORIENTED_EDGE('',*,*,#644,.F.);
#647=ORIENTED_EDGE('',*,*,#646,.T.);
#649=ORIENTED_EDGE('',*,*,#648,.F.);
#650=ORIENTED_EDGE('',*,*,#409,.F.);
#652=ORIENTED_EDGE('',*,*,#651,.T.);
#653=ORIENTED_EDGE('',*,*,#559,.T.);
#654=EDGE_LOOP('',(#641,#643,#645,#647,#649,#650,#652,#653));
#655=FACE_OUTER_BOUND('',#654,.F.);
#656=ORIENTED_EDGE('',*,*,#615,.T.);
#657=ORIENTED_EDGE('',*,*,#629,.T.);
#658=EDGE_LOOP('',(#656,#657));
#659=FACE_BOUND('',#658,.F.);
#661=CARTESIAN_POINT('',(3.7465E0,-1.778E0,-6.35E0));
#662=DIRECTION('',(0.E0,0.E0,-1.E0));
#663=DIRECTION('',(-1.E0,0.E0,0.E0));
#664=AXIS2_PLACEMENT_3D('',#661,#662,#663);
#665=PLANE('',#664);
#666=ORIENTED_EDGE('',*,*,#557,.F.);
#667=ORIENTED_EDGE('',*,*,#585,.T.);
#669=ORIENTED_EDGE('',*,*,#668,.T.);
#670=ORIENTED_EDGE('',*,*,#640,.F.);
#671=EDGE_LOOP('',(#666,#667,#669,#670));
#672=FACE_OUTER_BOUND('',#671,.F.);
#674=CARTESIAN_POINT('',(2.3876E0,-1.778E0,-6.35E0));
#675=DIRECTION('',(-1.E0,0.E0,0.E0));
#676=DIRECTION('',(0.E0,0.E0,1.E0));
#677=AXIS2_PLACEMENT_3D('',#674,#675,#676);
#678=PLANE('',#677);
#680=ORIENTED_EDGE('',*,*,#679,.T.);
#682=ORIENTED_EDGE('',*,*,#681,.T.);
#684=ORIENTED_EDGE('',*,*,#683,.F.);
#685=ORIENTED_EDGE('',*,*,#642,.T.);
#686=ORIENTED_EDGE('',*,*,#668,.F.);
#687=ORIENTED_EDGE('',*,*,#596,.F.);
#688=EDGE_LOOP('',(#680,#682,#684,#685,#686,#687));
#689=FACE_OUTER_BOUND('',#688,.F.);
#691=CARTESIAN_POINT('',(-3.7465E0,-9.470531415017E-2,0.E0));
#692=DIRECTION('',(0.E0,-9.848077530122E-1,1.736481776669E-1));
#693=DIRECTION('',(0.E0,-1.736481776669E-1,-9.848077530122E-1));
#694=AXIS2_PLACEMENT_3D('',#691,#692,#693);
#695=PLANE('',#694);
#696=ORIENTED_EDGE('',*,*,#679,.F.);
#697=ORIENTED_EDGE('',*,*,#594,.F.);
#699=ORIENTED_EDGE('',*,*,#698,.T.);
#701=ORIENTED_EDGE('',*,*,#700,.F.);
#703=ORIENTED_EDGE('',*,*,#702,.T.);
#705=ORIENTED_EDGE('',*,*,#704,.F.);
#706=EDGE_LOOP('',(#696,#697,#699,#701,#703,#705));
#707=FACE_OUTER_BOUND('',#706,.F.);
#709=CARTESIAN_POINT('',(-2.3876E0,-1.778E0,-8.128E-1));
#710=DIRECTION('',(1.E0,0.E0,0.E0));
#711=DIRECTION('',(0.E0,0.E0,-1.E0));
#712=AXIS2_PLACEMENT_3D('',#709,#710,#711);
#713=PLANE('',#712);
#714=ORIENTED_EDGE('',*,*,#698,.F.);
#715=ORIENTED_EDGE('',*,*,#592,.T.);
#717=ORIENTED_EDGE('',*,*,#716,.T.);
#718=ORIENTED_EDGE('',*,*,#646,.F.);
#720=ORIENTED_EDGE('',*,*,#719,.T.);
#722=ORIENTED_EDGE('',*,*,#721,.F.);
#723=EDGE_LOOP('',(#714,#715,#717,#718,#720,#722));
#724=FACE_OUTER_BOUND('',#723,.F.);
#726=CARTESIAN_POINT('',(-2.3876E0,-1.778E0,-6.35E0));
#727=DIRECTION('',(0.E0,0.E0,-1.E0));
#728=DIRECTION('',(-1.E0,0.E0,0.E0));
#729=AXIS2_PLACEMENT_3D('',#726,#727,#728);
#730=PLANE('',#729);
#731=ORIENTED_EDGE('',*,*,#411,.T.);
#732=ORIENTED_EDGE('',*,*,#648,.T.);
#733=ORIENTED_EDGE('',*,*,#716,.F.);
#734=ORIENTED_EDGE('',*,*,#590,.F.);
#735=EDGE_LOOP('',(#731,#732,#733,#734));
#736=FACE_OUTER_BOUND('',#735,.F.);
#738=CARTESIAN_POINT('',(-3.7465E0,2.5146E-1,-8.89E-1));
#739=DIRECTION('',(0.E0,9.848077530122E-1,1.736481776669E-1));
#740=DIRECTION('',(0.E0,-1.736481776669E-1,9.848077530122E-1));
#741=AXIS2_PLACEMENT_3D('',#738,#739,#740);
#742=PLANE('',#741);
#743=ORIENTED_EDGE('',*,*,#683,.T.);
#745=ORIENTED_EDGE('',*,*,#744,.T.);
#747=ORIENTED_EDGE('',*,*,#746,.F.);
#749=ORIENTED_EDGE('',*,*,#748,.T.);
#750=ORIENTED_EDGE('',*,*,#719,.F.);
#751=ORIENTED_EDGE('',*,*,#644,.T.);
#752=EDGE_LOOP('',(#743,#745,#747,#749,#750,#751));
#753=FACE_OUTER_BOUND('',#752,.F.);
#755=CARTESIAN_POINT('',(2.3876E0,-1.778E0,-8.128E-1));
#756=DIRECTION('',(-7.071067811865E-1,0.E0,-7.071067811865E-1));
#757=DIRECTION('',(-7.071067811865E-1,0.E0,7.071067811865E-1));
#758=AXIS2_PLACEMENT_3D('',#755,#756,#757);
#759=PLANE('',#758);
#761=ORIENTED_EDGE('',*,*,#760,.F.);
#762=ORIENTED_EDGE('',*,*,#744,.F.);
#763=ORIENTED_EDGE('',*,*,#681,.F.);
#764=ORIENTED_EDGE('',*,*,#704,.T.);
#765=EDGE_LOOP('',(#761,#762,#763,#764));
#766=FACE_OUTER_BOUND('',#765,.F.);
#768=CARTESIAN_POINT('',(-3.7465E0,9.470531415018E-2,0.E0));
#769=DIRECTION('',(0.E0,0.E0,1.E0));
#770=DIRECTION('',(0.E0,-1.E0,0.E0));
#771=AXIS2_PLACEMENT_3D('',#768,#769,#770);
#772=PLANE('',#771);
#773=ORIENTED_EDGE('',*,*,#760,.T.);
#774=ORIENTED_EDGE('',*,*,#702,.F.);
#776=ORIENTED_EDGE('',*,*,#775,.F.);
#777=ORIENTED_EDGE('',*,*,#746,.T.);
#778=EDGE_LOOP('',(#773,#774,#776,#777));
#779=FACE_OUTER_BOUND('',#778,.F.);
#781=CARTESIAN_POINT('',(-1.5748E0,-1.778E0,0.E0));
#782=DIRECTION('',(7.071067811865E-1,0.E0,-7.071067811865E-1));
#783=DIRECTION('',(-7.071067811865E-1,0.E0,-7.071067811865E-1));
#784=AXIS2_PLACEMENT_3D('',#781,#782,#783);
#785=PLANE('',#784);
#786=ORIENTED_EDGE('',*,*,#775,.T.);
#787=ORIENTED_EDGE('',*,*,#700,.T.);
#788=ORIENTED_EDGE('',*,*,#721,.T.);
#789=ORIENTED_EDGE('',*,*,#748,.F.);
#790=EDGE_LOOP('',(#786,#787,#788,#789));
#791=FACE_OUTER_BOUND('',#790,.F.);
#793=CARTESIAN_POINT('',(-3.7465E0,7.5438E-1,-7.12216E0));
#794=DIRECTION('',(1.E0,0.E0,0.E0));
#795=DIRECTION('',(0.E0,0.E0,-1.E0));
#796=AXIS2_PLACEMENT_3D('',#793,#794,#795);
#797=CYLINDRICAL_SURFACE('',#796,5.0292E-1);
#798=ORIENTED_EDGE('',*,*,#407,.F.);
#799=ORIENTED_EDGE('',*,*,#504,.T.);
#800=ORIENTED_EDGE('',*,*,#561,.T.);
#801=ORIENTED_EDGE('',*,*,#651,.F.);
#802=EDGE_LOOP('',(#798,#799,#800,#801));
#803=FACE_OUTER_BOUND('',#802,.F.);
#805=CARTESIAN_POINT('',(-3.7465E0,7.87146E0,-8.128E0));
#806=DIRECTION('',(0.E0,1.E0,0.E0));
#807=DIRECTION('',(0.E0,0.E0,1.E0));
#808=AXIS2_PLACEMENT_3D('',#805,#806,#807);
#809=PLANE('',#808);
#810=ORIENTED_EDGE('',*,*,#528,.T.);
#811=ORIENTED_EDGE('',*,*,#510,.F.);
#813=ORIENTED_EDGE('',*,*,#812,.F.);
#814=ORIENTED_EDGE('',*,*,#444,.T.);
#815=EDGE_LOOP('',(#810,#811,#813,#814));
#816=FACE_OUTER_BOUND('',#815,.F.);
#818=CARTESIAN_POINT('',(-3.4925E0,5.28066E0,-8.89508E0));
#819=DIRECTION('',(1.E0,0.E0,0.E0));
#820=DIRECTION('',(0.E0,1.E0,0.E0));
#821=AXIS2_PLACEMENT_3D('',#818,#819,#820);
#822=PLANE('',#821);
#823=ORIENTED_EDGE('',*,*,#446,.F.);
#824=ORIENTED_EDGE('',*,*,#812,.T.);
#825=ORIENTED_EDGE('',*,*,#508,.T.);
#826=ORIENTED_EDGE('',*,*,#430,.F.);
#827=EDGE_LOOP('',(#823,#824,#825,#826));
#828=FACE_OUTER_BOUND('',#827,.F.);
#830=CLOSED_SHELL('',(#421,#436,#464,#479,#492,#518,#532,#545,#566,#579,#606,
#621,#634,#660,#673,#690,#708,#725,#737,#754,#767,#780,#792,#804,#817,#829));
#831=MANIFOLD_SOLID_BREP('',#830);
#834=PLANE_ANGLE_MEASURE_WITH_UNIT(PLANE_ANGLE_MEASURE(1.745329251994E-2),#833);
#835=(CONVERSION_BASED_UNIT('DEGREE',#834)NAMED_UNIT(*)PLANE_ANGLE_UNIT());
#837=UNCERTAINTY_MEASURE_WITH_UNIT(LENGTH_MEASURE(1.371773331591E-3),#832,
'distance_accuracy_value',
'Maximum model space distance between geometric entities at asserted connectivities');
#840=APPLICATION_CONTEXT('automotive_design');
#841=APPLICATION_PROTOCOL_DEFINITION('international standard',
'automotive_design',2001,#840);
#842=PRODUCT_DEFINITION_CONTEXT('part definition',#840,'design');
#843=PRODUCT_CONTEXT('',#840,'mechanical');
#844=PRODUCT('C-61407-3','C-61407-3','NOT SPECIFIED',(#843));
#845=PRODUCT_DEFINITION_FORMATION('1','LAST_VERSION',#844);
#853=DERIVED_UNIT_ELEMENT(#852,2.E0);
#854=DERIVED_UNIT((#853));
#855=MEASURE_REPRESENTATION_ITEM('surface area measure',AREA_MEASURE(
1.978053679553E2),#854);
#860=DERIVED_UNIT_ELEMENT(#859,3.E0);
#861=DERIVED_UNIT((#860));
#862=MEASURE_REPRESENTATION_ITEM('volume measure',VOLUME_MEASURE(
4.186903332597E1),#861);
#866=CARTESIAN_POINT('centre point',(7.490250952806E-8,2.085092642278E0,
-6.290858211760E0));
#871=DERIVED_UNIT_ELEMENT(#870,2.E0);
#872=DERIVED_UNIT((#871));
#873=MEASURE_REPRESENTATION_ITEM('surface area measure',AREA_MEASURE(
1.978053679553E2),#872);
#878=DERIVED_UNIT_ELEMENT(#877,3.E0);
#879=DERIVED_UNIT((#878));
#880=MEASURE_REPRESENTATION_ITEM('volume measure',VOLUME_MEASURE(
4.186903332597E1),#879);
#884=CARTESIAN_POINT('centre point',(7.490250952806E-8,2.085092642278E0,
-6.290858211760E0));
#889=PRODUCT_RELATED_PRODUCT_CATEGORY('part','',(#844));
#1=COLOUR_RGB('',8.784E-1,9.49E-1,1.E0);
#14=CIRCLE('',#13,5.0292E-1);
#31=CIRCLE('',#30,1.00584E0);
#40=CIRCLE('',#39,1.8415E0);
#45=CIRCLE('',#44,1.8415E0);
#78=CIRCLE('',#77,1.8415E0);
#83=CIRCLE('',#82,1.8415E0);
#120=CIRCLE('',#119,1.00584E0);
#137=CIRCLE('',#136,5.0292E-1);
#150=CIRCLE('',#149,6.6675E-1);
#155=CIRCLE('',#154,6.6675E-1);
#188=CIRCLE('',#187,6.6675E-1);
#193=CIRCLE('',#192,6.6675E-1);
#403=EDGE_CURVE('',#368,#369,#5,.T.);
#405=EDGE_CURVE('',#369,#308,#9,.T.);
#407=EDGE_CURVE('',#308,#309,#14,.T.);
#409=EDGE_CURVE('',#309,#321,#18,.T.);
#411=EDGE_CURVE('',#320,#321,#22,.T.);
#413=EDGE_CURVE('',#320,#304,#26,.T.);
#415=EDGE_CURVE('',#304,#305,#31,.T.);
#417=EDGE_CURVE('',#305,#368,#35,.T.);
#421=ADVANCED_FACE('',(#420),#402,.F.);
#428=EDGE_CURVE('',#368,#383,#57,.T.);
#430=EDGE_CURVE('',#383,#397,#301,.T.);
#432=EDGE_CURVE('',#369,#397,#95,.T.);
#436=ADVANCED_FACE('',(#435),#426,.F.);
#442=EDGE_CURVE('',#380,#381,#49,.T.);
#444=EDGE_CURVE('',#385,#380,#297,.T.);
#446=EDGE_CURVE('',#385,#383,#53,.T.);
#450=EDGE_CURVE('',#305,#313,#61,.T.);
#452=EDGE_CURVE('',#313,#372,#115,.T.);
#454=EDGE_CURVE('',#372,#381,#65,.T.);
#458=EDGE_CURVE('',#376,#377,#40,.T.);
#460=EDGE_CURVE('',#377,#376,#45,.T.);
#464=ADVANCED_FACE('',(#457,#463),#441,.T.);
#471=EDGE_CURVE('',#377,#393,#73,.T.);
#473=EDGE_CURVE('',#392,#393,#78,.T.);
#475=EDGE_CURVE('',#376,#392,#69,.T.);
#479=ADVANCED_FACE('',(#478),#469,.F.);
#487=EDGE_CURVE('',#393,#392,#83,.T.);
#492=ADVANCED_FACE('',(#491),#484,.F.);
#498=EDGE_CURVE('',#387,#395,#87,.T.);
#500=EDGE_CURVE('',#373,#395,#91,.T.);
#502=EDGE_CURVE('',#373,#316,#141,.T.);
#504=EDGE_CURVE('',#308,#316,#285,.T.);
#508=EDGE_CURVE('',#389,#397,#99,.T.);
#510=EDGE_CURVE('',#389,#387,#103,.T.);
#518=ADVANCED_FACE('',(#513,#517),#497,.T.);
#525=EDGE_CURVE('',#381,#395,#107,.T.);
#528=EDGE_CURVE('',#380,#387,#289,.T.);
#532=ADVANCED_FACE('',(#531),#523,.F.);
#538=EDGE_CURVE('',#372,#373,#111,.T.);
#545=ADVANCED_FACE('',(#544),#537,.F.);
#553=EDGE_CURVE('',#312,#313,#120,.T.);
#555=EDGE_CURVE('',#324,#312,#124,.T.);
#557=EDGE_CURVE('',#324,#325,#128,.T.);
#559=EDGE_CURVE('',#317,#325,#132,.T.);
#561=EDGE_CURVE('',#316,#317,#137,.T.);
#566=ADVANCED_FACE('',(#565),#550,.T.);
#573=EDGE_CURVE('',#304,#312,#145,.T.);
#579=ADVANCED_FACE('',(#578),#571,.T.);
#585=EDGE_CURVE('',#324,#347,#159,.T.);
#590=EDGE_CURVE('',#320,#349,#163,.T.);
#592=EDGE_CURVE('',#341,#349,#167,.T.);
#594=EDGE_CURVE('',#341,#336,#171,.T.);
#596=EDGE_CURVE('',#336,#347,#175,.T.);
#600=EDGE_CURVE('',#344,#345,#150,.T.);
#602=EDGE_CURVE('',#345,#344,#155,.T.);
#606=ADVANCED_FACE('',(#599,#605),#584,.T.);
#613=EDGE_CURVE('',#345,#353,#183,.T.);
#615=EDGE_CURVE('',#352,#353,#188,.T.);
#617=EDGE_CURVE('',#344,#352,#179,.T.);
#621=ADVANCED_FACE('',(#620),#611,.F.);
#629=EDGE_CURVE('',#353,#352,#193,.T.);
#634=ADVANCED_FACE('',(#633),#626,.F.);
#640=EDGE_CURVE('',#325,#355,#197,.T.);
#642=EDGE_CURVE('',#357,#355,#201,.T.);
#644=EDGE_CURVE('',#360,#357,#265,.T.);
#646=EDGE_CURVE('',#360,#361,#205,.T.);
#648=EDGE_CURVE('',#321,#361,#209,.T.);
#651=EDGE_CURVE('',#309,#317,#213,.T.);
#660=ADVANCED_FACE('',(#655,#659),#639,.T.);
#668=EDGE_CURVE('',#347,#355,#217,.T.);
#673=ADVANCED_FACE('',(#672),#665,.F.);
#679=EDGE_CURVE('',#336,#337,#221,.T.);
#681=EDGE_CURVE('',#337,#363,#269,.T.);
#683=EDGE_CURVE('',#357,#363,#249,.T.);
#690=ADVANCED_FACE('',(#689),#678,.F.);
#698=EDGE_CURVE('',#341,#339,#225,.T.);
#700=EDGE_CURVE('',#333,#339,#229,.T.);
#702=EDGE_CURVE('',#333,#329,#233,.T.);
#704=EDGE_CURVE('',#337,#329,#237,.T.);
#708=ADVANCED_FACE('',(#707),#695,.T.);
#716=EDGE_CURVE('',#349,#361,#245,.T.);
#719=EDGE_CURVE('',#360,#365,#261,.T.);
#721=EDGE_CURVE('',#339,#365,#241,.T.);
#725=ADVANCED_FACE('',(#724),#713,.F.);
#737=ADVANCED_FACE('',(#736),#730,.F.);
#744=EDGE_CURVE('',#363,#328,#253,.T.);
#746=EDGE_CURVE('',#332,#328,#281,.T.);
#748=EDGE_CURVE('',#332,#365,#257,.T.);
#754=ADVANCED_FACE('',(#753),#742,.T.);
#760=EDGE_CURVE('',#328,#329,#273,.T.);
#767=ADVANCED_FACE('',(#766),#759,.F.);
#775=EDGE_CURVE('',#332,#333,#277,.T.);
#780=ADVANCED_FACE('',(#779),#772,.T.);
#792=ADVANCED_FACE('',(#791),#785,.F.);
#804=ADVANCED_FACE('',(#803),#797,.F.);
#812=EDGE_CURVE('',#385,#389,#293,.T.);
#817=ADVANCED_FACE('',(#816),#809,.T.);
#829=ADVANCED_FACE('',(#828),#822,.F.);
#832=(LENGTH_UNIT()NAMED_UNIT(*)SI_UNIT(.MILLI.,.METRE.));
#833=(NAMED_UNIT(*)PLANE_ANGLE_UNIT()SI_UNIT($,.RADIAN.));
#836=(NAMED_UNIT(*)SI_UNIT($,.STERADIAN.)SOLID_ANGLE_UNIT());
#838=(GEOMETRIC_REPRESENTATION_CONTEXT(3)GLOBAL_UNCERTAINTY_ASSIGNED_CONTEXT((
#837))GLOBAL_UNIT_ASSIGNED_CONTEXT((#832,#835,#836))REPRESENTATION_CONTEXT
('ID1','3'));
#839=ADVANCED_BREP_SHAPE_REPRESENTATION('',(#831),#838);
#846=PRODUCT_DEFINITION('part definition','',#845,#842);
#847=PRODUCT_DEFINITION_SHAPE('','SHAPE FOR C-61407-3.',#846);
#848=SHAPE_ASPECT('','solid data associated with C-61407-3',#847,.F.);
#849=PROPERTY_DEFINITION('',
'shape for solid data with which properties are associated',#848);
#850=SHAPE_REPRESENTATION('',(#831),#838);
#851=SHAPE_DEFINITION_REPRESENTATION(#849,#850);
#852=(LENGTH_UNIT()NAMED_UNIT(*)SI_UNIT(.MILLI.,.METRE.));
#856=PROPERTY_DEFINITION('geometric validation property','area of C-61407-3',
#848);
#857=REPRESENTATION('surface area',(#855),#838);
#858=PROPERTY_DEFINITION_REPRESENTATION(#856,#857);
#859=(LENGTH_UNIT()NAMED_UNIT(*)SI_UNIT(.MILLI.,.METRE.));
#863=PROPERTY_DEFINITION('geometric validation property','volume of C-61407-3',
#848);
#864=REPRESENTATION('volume',(#862),#838);
#865=PROPERTY_DEFINITION_REPRESENTATION(#863,#864);
#867=PROPERTY_DEFINITION('geometric validation property',
'centroid of C-61407-3',#848);
#868=REPRESENTATION('centroid',(#866),#838);
#869=PROPERTY_DEFINITION_REPRESENTATION(#867,#868);
#870=(LENGTH_UNIT()NAMED_UNIT(*)SI_UNIT(.MILLI.,.METRE.));
#874=PROPERTY_DEFINITION('geometric validation property','area of C-61407-3',
#847);
#875=REPRESENTATION('surface area',(#873),#838);
#876=PROPERTY_DEFINITION_REPRESENTATION(#874,#875);
#877=(LENGTH_UNIT()NAMED_UNIT(*)SI_UNIT(.MILLI.,.METRE.));
#881=PROPERTY_DEFINITION('geometric validation property','volume of C-61407-3',
#847);
#882=REPRESENTATION('volume',(#880),#838);
#883=PROPERTY_DEFINITION_REPRESENTATION(#881,#882);
#885=PROPERTY_DEFINITION('geometric validation property',
'centroid of C-61407-3',#847);
#886=REPRESENTATION('centroid',(#884),#838);
#887=PROPERTY_DEFINITION_REPRESENTATION(#885,#886);
#888=SHAPE_DEFINITION_REPRESENTATION(#847,#839);
ENDSEC;
END-ISO-10303-21;
