(footprint "IND-CONECTOR" (version 20211014) (generator pcbnew)
  (layer "F.Cu")
  (tedit 4289BEAB)
  (attr smd)
  (fp_text reference "P16" (at 0 0) (layer "F.SilkS") hide
    (effects (font (size 1.524 1.524) (thickness 0.05)))
    (tstamp 7771b3f2-0b7f-4b75-bdcd-e28b471432a1)
  )
  (fp_text value "Header, 2-Pin" (at 0 0) (layer "F.SilkS") hide
    (effects (font (size 1.524 1.524) (thickness 0.05)))
    (tstamp 78a78aa1-3d44-4e49-a16c-537746902cb0)
  )
  (pad "1" smd rect (at 0 0 90) (size 8 6) (layers "F.Cu") (tstamp 40fcdc96-09cd-47d8-b361-02f9ce9df8eb))
  (pad "2" smd rect (at 11.1252 0 90) (size 8 6) (layers "F.Cu") (tstamp 93b166ab-5c68-4fcd-a593-6d1dc04eb6dc))
)
